%YAML 1.1
%TAG !u! tag:unity3d.com,2011:
--- !u!114 &11400000
MonoBehaviour:
  m_ObjectHideFlags: 0
  m_CorrespondingSourceObject: {fileID: 0}
  m_PrefabInstance: {fileID: 0}
  m_PrefabAsset: {fileID: 0}
  m_GameObject: {fileID: 0}
  m_Enabled: 1
  m_EditorHideFlags: 0
  m_Script: {fileID: 11500000, guid: cfb54f4e666c4752b4efafdac843fb15, type: 3}
  m_Name: boss odin
  m_EditorClassIdentifier: 
  icon: {fileID: 21300000, guid: e907958f5299c6040972b53d68aeae14, type: 3}
  id: 7726e56a-332c-43ec-8751-60256e349b20
  description: 
  itemType: 0
  level: 0
  star: 0
  price: 0
  speed: 0
  defense: 0
  clip: {fileID: 8300000, guid: e220c506f0f087141a6c00ea0bda9a81, type: 3}
  value: 300
  slowSpeed: 75
