%YAML 1.1
%TAG !u! tag:unity3d.com,2011:
--- !u!114 &11400000
MonoBehaviour:
  m_ObjectHideFlags: 0
  m_CorrespondingSourceObject: {fileID: 0}
  m_PrefabInstance: {fileID: 0}
  m_PrefabAsset: {fileID: 0}
  m_GameObject: {fileID: 0}
  m_Enabled: 1
  m_EditorHideFlags: 0
  m_Script: {fileID: 11500000, guid: d7db433b51414c7db1e97d05ea5dc356, type: 3}
  m_Name: Line Bach Kim
  m_EditorClassIdentifier: 
  icon: {fileID: 4243295087700889636, guid: 240795579bcbcf34ca69c6456f8b4349, type: 3}
  id: 3de995a9-91a9-4abb-9736-c6563271f16c
  description: 
  itemType: 1
  level: 0
  star: 0
  price: 0
  speed: 0
  defense: 0
  iconEquip: {fileID: -8231456822313215634, guid: 9c3986e87cf309048aaf72988721e079,
    type: 3}
  material: {fileID: 2100000, guid: 495a6536b0065df4abf19e6122705738, type: 2}
  special:
    items: []
    strength: 0
    pullSpeed: 0
    flySpeed: 0
    timerWhenDiamondBack: 0
    timerWhenGoldBack: 0
    damageToBoss: 0
    percentDamageToBoss: 0
    resourcePoint: 0
  strength: 0
  pullSpeed: 0
  stoneSpeed: 0
  flySpeed: 2
  goldWhenBack: 0
  timerWhenDiamondBack: 0
  timerWhenGoldBack: 0
  timerWhenStoneBack: 0
  damageToBoss: 0
  percentDamageToBoss: 0
  percentWinBoss: 0
  percentDestroyItem: 0
  stonePoint: 0
  resourcePoint: 0
  tntFree: 0
  strengthFree: 0
  seconds: 0
  secondWins: 0
  stonePercent: 0
  stoneValue: 0
  boss: {fileID: 0}
