%YAML 1.1
%TAG !u! tag:unity3d.com,2011:
--- !u!687078895 &4343727234628468602
SpriteAtlas:
  m_ObjectHideFlags: 0
  m_CorrespondingSourceObject: {fileID: 0}
  m_PrefabInstance: {fileID: 0}
  m_PrefabAsset: {fileID: 0}
  m_Name: New Sprite Atlas
  m_EditorData:
    serializedVersion: 2
    textureSettings:
      serializedVersion: 2
      anisoLevel: 1
      compressionQuality: 50
      maxTextureSize: 2048
      textureCompression: 0
      filterMode: 1
      generateMipMaps: 0
      readable: 0
      crunchedCompression: 0
      sRGB: 1
    platformSettings:
    - serializedVersion: 3
      m_BuildTarget: DefaultTexturePlatform
      m_MaxTextureSize: 2048
      m_ResizeAlgorithm: 0
      m_TextureFormat: -1
      m_TextureCompression: 1
      m_CompressionQuality: 50
      m_CrunchedCompression: 1
      m_AllowsAlphaSplitting: 0
      m_Overridden: 0
      m_AndroidETC2FallbackOverride: 0
      m_ForceMaximumCompressionQuality_BC6H_BC7: 0
    packingSettings:
      serializedVersion: 2
      padding: 2
      blockOffset: 1
      allowAlphaSplitting: 0
      enableRotation: 1
      enableTightPacking: 0
    secondaryTextureSettings: {}
    variantMultiplier: 1
    packables:
    - {fileID: 2800000, guid: aae4c8a0656316a4ca763d21f9427d21, type: 3}
    - {fileID: 2800000, guid: d88ec2bc4d9867c4d9e7292d84b69dab, type: 3}
    - {fileID: 2800000, guid: f9b37088ae368ac46ae7e1281eda30e7, type: 3}
    - {fileID: 2800000, guid: a64e571ea0a5def4b9f012fe57bc08d9, type: 3}
    - {fileID: 2800000, guid: c8e747204a55d6443bad25a7fff2fc9f, type: 3}
    - {fileID: 2800000, guid: 49e0886be015d124698a409ab1f329b2, type: 3}
    - {fileID: 2800000, guid: a7ef51056417bec4a9b75888b6227429, type: 3}
    - {fileID: 2800000, guid: 076005f84aefbe94897410687be25a94, type: 3}
    - {fileID: 2800000, guid: 1ba076731e9ce19429fce7d1b906adbe, type: 3}
    - {fileID: 2800000, guid: f5669969261021744a3493c0d0a5ec7f, type: 3}
    - {fileID: 2800000, guid: 6a54ae82c6c15f9478c365001f5e108c, type: 3}
    - {fileID: 2800000, guid: 75c7fd7c721c31549b290a1e67644ecd, type: 3}
    - {fileID: 2800000, guid: 9e1b75c2be04181479e324eb016f78f7, type: 3}
    - {fileID: 2800000, guid: f259ec33992ccbb46a27e94de85fe5dd, type: 3}
    - {fileID: 2800000, guid: 4970266afa9f27b4181ab5389d2c2de1, type: 3}
    - {fileID: 2800000, guid: 236359d324fb12448abe67022e8a878c, type: 3}
    - {fileID: 2800000, guid: 3c1ccdd75ffb02743b08ace71b5968e0, type: 3}
    - {fileID: 2800000, guid: 38b30d12d2659c840ae23ddda616c888, type: 3}
    - {fileID: 2800000, guid: adf97b20fc481694fbfc75140a9d4a2b, type: 3}
    - {fileID: 2800000, guid: 2299eca1a67e7fb4d997380b63dc71cb, type: 3}
    - {fileID: 2800000, guid: d6c94c7ddb1433442a6e95285f831cb1, type: 3}
    - {fileID: 2800000, guid: e7d3f4f12184a4342a026a5b2833c40d, type: 3}
    - {fileID: 2800000, guid: 8be7fdd5a3e45674c84193511e58070a, type: 3}
    - {fileID: 2800000, guid: a5cb19c47cc99b74ab957ba84700cc7d, type: 3}
    - {fileID: 2800000, guid: 5453cc0a6e631264dbfa00d72115e7d9, type: 3}
    - {fileID: 2800000, guid: 7cf4ee9ff61a54c468c0cb236a23276e, type: 3}
    - {fileID: 2800000, guid: d7421348a0640594aa22ab8483607ece, type: 3}
    - {fileID: 2800000, guid: 34ddf919d17c8694f98bea2d76aa87d1, type: 3}
    - {fileID: 2800000, guid: 547e913bc50b463428467d794a677d2d, type: 3}
    - {fileID: 2800000, guid: 5a09ee2c5c09e6e47ab3a2627dc554b9, type: 3}
    - {fileID: 2800000, guid: b1e6947757eb4a844aa1e5ce7cba78ba, type: 3}
    - {fileID: 2800000, guid: 375c6f87c0ef8c049ac86f8e884e75ac, type: 3}
    - {fileID: 2800000, guid: 645fd710b349ee347aa4a3c04c3d9a26, type: 3}
    - {fileID: 2800000, guid: 06f4a9023e37f9946b933fe74d69ea16, type: 3}
    - {fileID: 2800000, guid: 6d741ca92f3d17a4e96d20d53f34e104, type: 3}
    - {fileID: 2800000, guid: 14da2bf4b82af8840808d4be21f76681, type: 3}
    - {fileID: 2800000, guid: e7f42cd3eb27f4743b18020df1c8733e, type: 3}
    - {fileID: 2800000, guid: 2f9eee7be278d50489deb733516e116f, type: 3}
    - {fileID: 2800000, guid: c5bae4fef6b5ffd4e8f1b22aaea722ec, type: 3}
    - {fileID: 2800000, guid: 4f7a18332fef5504d814be1997712303, type: 3}
    - {fileID: 2800000, guid: cf6d8f4b9d4a9584e8de4eeaff5c1fc1, type: 3}
    - {fileID: 2800000, guid: 934413b479d45764e888e4bd8ab995df, type: 3}
    - {fileID: 2800000, guid: 5cd411e8864a28443a444b8db1f9d8af, type: 3}
    - {fileID: 2800000, guid: 76fe54cba8bfdc84da6496f6c7d9be75, type: 3}
    - {fileID: 2800000, guid: d92c0e530e58b1e4eaeb02461512347f, type: 3}
    - {fileID: 2800000, guid: f0377bb5a1e252640afa0d0f93fbc145, type: 3}
    - {fileID: 2800000, guid: 801ee607136a0f94f8c1359c2f96293a, type: 3}
    - {fileID: 2800000, guid: a905bf75276877a4d983ca3b255c80d2, type: 3}
    - {fileID: 2800000, guid: 584f42d10dbd3b946bda49ea3aee44bd, type: 3}
    - {fileID: 2800000, guid: a85dec5792c578b4c92d0d9556accf59, type: 3}
    - {fileID: 2800000, guid: dc3be2cc4aff71b419c98391d53555d8, type: 3}
    - {fileID: 2800000, guid: 8362493394227bf47885561e97291dc3, type: 3}
    - {fileID: 2800000, guid: 5ef5e4af8bd1fc44e8ef58c6caaa979e, type: 3}
    - {fileID: 2800000, guid: cbe0fab65f9a97f45b73365a26ee7822, type: 3}
    - {fileID: 2800000, guid: bb8d81315b9318946b2b1a6c2f3f4579, type: 3}
    - {fileID: 2800000, guid: 53138eca874fe7c4ca039180c62165eb, type: 3}
    - {fileID: 2800000, guid: ea79b3d643b2f7441afab6485ad3f430, type: 3}
    - {fileID: 2800000, guid: 974a87f5bd3f9c64b92e9f3b0395b907, type: 3}
    - {fileID: 2800000, guid: 56d4a8283eda7874a92cd90c1fb82631, type: 3}
    - {fileID: 2800000, guid: 1d5d221750564964885d8d3b1ec5d594, type: 3}
    totalSpriteSurfaceArea: 2220060
    bindAsDefault: 1
    isAtlasV2: 0
    cachedData: {fileID: 0}
  m_MasterAtlas: {fileID: 0}
  m_PackedSprites:
  - {fileID: 21300000, guid: 645fd710b349ee347aa4a3c04c3d9a26, type: 3}
  - {fileID: 21300000, guid: c8e747204a55d6443bad25a7fff2fc9f, type: 3}
  - {fileID: 21300000, guid: adf97b20fc481694fbfc75140a9d4a2b, type: 3}
  - {fileID: 21300000, guid: aae4c8a0656316a4ca763d21f9427d21, type: 3}
  - {fileID: 21300000, guid: bb8d81315b9318946b2b1a6c2f3f4579, type: 3}
  - {fileID: 21300000, guid: 2299eca1a67e7fb4d997380b63dc71cb, type: 3}
  - {fileID: 21300000, guid: 584f42d10dbd3b946bda49ea3aee44bd, type: 3}
  - {fileID: 21300000, guid: e7d3f4f12184a4342a026a5b2833c40d, type: 3}
  - {fileID: 21300000, guid: 06f4a9023e37f9946b933fe74d69ea16, type: 3}
  - {fileID: 21300000, guid: 38b30d12d2659c840ae23ddda616c888, type: 3}
  - {fileID: 21300000, guid: 6a54ae82c6c15f9478c365001f5e108c, type: 3}
  - {fileID: 21300000, guid: 9e1b75c2be04181479e324eb016f78f7, type: 3}
  - {fileID: 21300000, guid: 4f7a18332fef5504d814be1997712303, type: 3}
  - {fileID: 21300000, guid: 8362493394227bf47885561e97291dc3, type: 3}
  - {fileID: 21300000, guid: f259ec33992ccbb46a27e94de85fe5dd, type: 3}
  - {fileID: 21300000, guid: d92c0e530e58b1e4eaeb02461512347f, type: 3}
  - {fileID: 21300000, guid: 1ba076731e9ce19429fce7d1b906adbe, type: 3}
  - {fileID: 21300000, guid: 236359d324fb12448abe67022e8a878c, type: 3}
  - {fileID: 21300000, guid: e7f42cd3eb27f4743b18020df1c8733e, type: 3}
  - {fileID: 21300000, guid: 934413b479d45764e888e4bd8ab995df, type: 3}
  - {fileID: 21300000, guid: a5cb19c47cc99b74ab957ba84700cc7d, type: 3}
  - {fileID: 21300000, guid: 14da2bf4b82af8840808d4be21f76681, type: 3}
  - {fileID: 21300000, guid: a7ef51056417bec4a9b75888b6227429, type: 3}
  - {fileID: 21300000, guid: a905bf75276877a4d983ca3b255c80d2, type: 3}
  - {fileID: 21300000, guid: f0377bb5a1e252640afa0d0f93fbc145, type: 3}
  - {fileID: 21300000, guid: 8be7fdd5a3e45674c84193511e58070a, type: 3}
  - {fileID: 21300000, guid: 974a87f5bd3f9c64b92e9f3b0395b907, type: 3}
  - {fileID: 21300000, guid: cbe0fab65f9a97f45b73365a26ee7822, type: 3}
  - {fileID: 21300000, guid: ea79b3d643b2f7441afab6485ad3f430, type: 3}
  - {fileID: 21300000, guid: 801ee607136a0f94f8c1359c2f96293a, type: 3}
  - {fileID: 21300000, guid: 1d5d221750564964885d8d3b1ec5d594, type: 3}
  - {fileID: 21300000, guid: a85dec5792c578b4c92d0d9556accf59, type: 3}
  - {fileID: 21300000, guid: b1e6947757eb4a844aa1e5ce7cba78ba, type: 3}
  - {fileID: 21300000, guid: 375c6f87c0ef8c049ac86f8e884e75ac, type: 3}
  - {fileID: 21300000, guid: 3c1ccdd75ffb02743b08ace71b5968e0, type: 3}
  - {fileID: 21300000, guid: 56d4a8283eda7874a92cd90c1fb82631, type: 3}
  - {fileID: 21300000, guid: d7421348a0640594aa22ab8483607ece, type: 3}
  - {fileID: 21300000, guid: f9b37088ae368ac46ae7e1281eda30e7, type: 3}
  - {fileID: 21300000, guid: 5cd411e8864a28443a444b8db1f9d8af, type: 3}
  - {fileID: 21300000, guid: 076005f84aefbe94897410687be25a94, type: 3}
  - {fileID: 21300000, guid: 34ddf919d17c8694f98bea2d76aa87d1, type: 3}
  - {fileID: 21300000, guid: f5669969261021744a3493c0d0a5ec7f, type: 3}
  - {fileID: 21300000, guid: 6d741ca92f3d17a4e96d20d53f34e104, type: 3}
  - {fileID: 21300000, guid: 5453cc0a6e631264dbfa00d72115e7d9, type: 3}
  - {fileID: 21300000, guid: 4970266afa9f27b4181ab5389d2c2de1, type: 3}
  - {fileID: 21300000, guid: 53138eca874fe7c4ca039180c62165eb, type: 3}
  - {fileID: 21300000, guid: 547e913bc50b463428467d794a677d2d, type: 3}
  - {fileID: 21300000, guid: cf6d8f4b9d4a9584e8de4eeaff5c1fc1, type: 3}
  - {fileID: 21300000, guid: 49e0886be015d124698a409ab1f329b2, type: 3}
  - {fileID: 21300000, guid: 2f9eee7be278d50489deb733516e116f, type: 3}
  - {fileID: 21300000, guid: 76fe54cba8bfdc84da6496f6c7d9be75, type: 3}
  - {fileID: 21300000, guid: 5a09ee2c5c09e6e47ab3a2627dc554b9, type: 3}
  - {fileID: 21300000, guid: 75c7fd7c721c31549b290a1e67644ecd, type: 3}
  - {fileID: 21300000, guid: d88ec2bc4d9867c4d9e7292d84b69dab, type: 3}
  - {fileID: 21300000, guid: dc3be2cc4aff71b419c98391d53555d8, type: 3}
  - {fileID: 21300000, guid: d6c94c7ddb1433442a6e95285f831cb1, type: 3}
  - {fileID: 21300000, guid: a64e571ea0a5def4b9f012fe57bc08d9, type: 3}
  - {fileID: 21300000, guid: c5bae4fef6b5ffd4e8f1b22aaea722ec, type: 3}
  - {fileID: 21300000, guid: 7cf4ee9ff61a54c468c0cb236a23276e, type: 3}
  - {fileID: 21300000, guid: 5ef5e4af8bd1fc44e8ef58c6caaa979e, type: 3}
  m_PackedSpriteNamesToIndex:
  - loki (2)idle_00031
  - loki (2)idle_00003
  - loki (2)idle_00017
  - loki (2)idle_00059
  - loki (2)idle_00053
  - loki (2)idle_00018
  - loki (2)idle_00047
  - loki (2)idle_00020
  - loki (2)idle_00032
  - loki (2)idle_00016
  - loki (2)idle_00009
  - loki (2)idle_00011
  - loki (2)idle_00038
  - loki (2)idle_00050
  - loki (2)idle_00012
  - loki (2)idle_00043
  - loki (2)idle_00007
  - loki (2)idle_00014
  - loki (2)idle_00035
  - loki (2)idle_00040
  - loki (2)idle_00022
  - loki (2)idle_00034
  - loki (2)idle_00005
  - loki (2)idle_00046
  - loki (2)idle_00044
  - loki (2)idle_00021
  - loki (2)idle_00056
  - loki (2)idle_00052
  - loki (2)idle_00055
  - loki (2)idle_00045
  - loki (2)idle_00058
  - loki (2)idle_00048
  - loki (2)idle_00029
  - loki (2)idle_00030
  - loki (2)idle_00015
  - loki (2)idle_00057
  - loki (2)idle_00025
  - loki (2)idle_00001
  - loki (2)idle_00041
  - loki (2)idle_00006
  - loki (2)idle_00026
  - loki (2)idle_00008
  - loki (2)idle_00033
  - loki (2)idle_00023
  - loki (2)idle_00013
  - loki (2)idle_00054
  - loki (2)idle_00027
  - loki (2)idle_00039
  - loki (2)idle_00004
  - loki (2)idle_00036
  - loki (2)idle_00042
  - loki (2)idle_00028
  - loki (2)idle_00010
  - loki (2)idle_00000
  - loki (2)idle_00049
  - loki (2)idle_00019
  - loki (2)idle_00002
  - loki (2)idle_00037
  - loki (2)idle_00024
  - loki (2)idle_00051
  m_RenderDataMap: {}
  m_Tag: New Sprite Atlas
  m_IsVariant: 0
