%YAML 1.1
%TAG !u! tag:unity3d.com,2011:
--- !u!114 &11400000
MonoBehaviour:
  m_ObjectHideFlags: 0
  m_CorrespondingSourceObject: {fileID: 0}
  m_PrefabInstance: {fileID: 0}
  m_PrefabAsset: {fileID: 0}
  m_GameObject: {fileID: 0}
  m_Enabled: 1
  m_EditorHideFlags: 0
  m_Script: {fileID: 11500000, guid: ffcc26ac2b9a47199fb2ba40069c48bf, type: 3}
  m_Name: Quest egypt 1-3
  m_EditorClassIdentifier: 
  rewards:
  - rewards:
    - item: {fileID: 11400000, guid: e6e3cc94169356642a9eb3f67ffdd584, type: 2}
      amount: 2
      drop: 100
    drop: 100
    random: 0
  requires:
  - itemRequire: {fileID: 11400000, guid: bfa521f2c1937a040b841d9b5587d854, type: 2}
    requireAmount: 30
    currentAmount: 0
  filterType: 0
  questType: 0
  id: d29292af-6af2-41b2-8fda-1539bb2f3a3c
  title: 
  description: "boss ch\u1EC9 xu\u1EA5t hi\u1EC7n \u1EDF round cu\u1ED1i"
  daily: 0
  received: 0
  killAllBoss: 1
