%YAML 1.1
%TAG !u! tag:unity3d.com,2011:
--- !u!114 &11400000
MonoBehaviour:
  m_ObjectHideFlags: 0
  m_CorrespondingSourceObject: {fileID: 0}
  m_PrefabInstance: {fileID: 0}
  m_PrefabAsset: {fileID: 0}
  m_GameObject: {fileID: 0}
  m_Enabled: 1
  m_EditorHideFlags: 0
  m_Script: {fileID: 11500000, guid: eefd331cc0fc48b1b769dead51d5e969, type: 3}
  m_Name: Treasure Legend Asgard
  m_EditorClassIdentifier: 
  id: 2a64c097-825c-4360-bbfc-92d606e777d0
  itemType: 3
  icon: {fileID: 4552467078355327795, guid: 260327d5cbc8fe749979373a65044895, type: 3}
  price: 0
  description: 
  rewards:
  - rewards:
    - item: {fileID: 11400000, guid: 1d9c7cc98b36ce84fa67984f2b76b93a, type: 2}
      amount: 3
      drop: 100
    - item: {fileID: 11400000, guid: 8d8a068ae8d43034a84360fc8e2eabb7, type: 2}
      amount: 2
      drop: 100
    - item: {fileID: 11400000, guid: c0a63c32d0d272e478ca141b2688398c, type: 2}
      amount: 2
      drop: 100
    drop: 100
    random: 1
  - rewards:
    - item: {fileID: 11400000, guid: b5e8223581ffa6447a28929234b6e2b1, type: 2}
      amount: 1
      drop: 33.3
    - item: {fileID: 11400000, guid: 1d9c7cc98b36ce84fa67984f2b76b93a, type: 2}
      amount: 1
      drop: 33.3
    - item: {fileID: 11400000, guid: 5b4672efcf39c564c9b781e75a572a5f, type: 2}
      amount: 1
      drop: 33.3
    drop: 100
    random: 1
  opened: {fileID: -5705371924663538201, guid: 260327d5cbc8fe749979373a65044895, type: 3}
  showChance: 5
