%YAML 1.1
%TAG !u! tag:unity3d.com,2011:
--- !u!114 &11400000
MonoBehaviour:
  m_ObjectHideFlags: 0
  m_CorrespondingSourceObject: {fileID: 0}
  m_PrefabInstance: {fileID: 0}
  m_PrefabAsset: {fileID: 0}
  m_GameObject: {fileID: 0}
  m_Enabled: 1
  m_EditorHideFlags: 0
  m_Script: {fileID: 11500000, guid: eefd331cc0fc48b1b769dead51d5e969, type: 3}
  m_Name: Treasure Stone Atlantic
  m_EditorClassIdentifier: 
  id: b5bc2b12-beff-4bf9-9e76-8839960fbb6f
  itemType: 3
  icon: {fileID: -3030873605077368072, guid: 260327d5cbc8fe749979373a65044895, type: 3}
  price: 0
  description: 
  rewards:
  - rewards:
    - item: {fileID: 11400000, guid: 0ca3f3d5c00a530448a4bfcdef0b0aa7, type: 2}
      amount: 1
      drop: 100
    drop: 100
    random: 0
  - rewards:
    - item: {fileID: 11400000, guid: 0ca3f3d5c00a530448a4bfcdef0b0aa7, type: 2}
      amount: 1
      drop: 100
    - item: {fileID: 11400000, guid: 8d8a068ae8d43034a84360fc8e2eabb7, type: 2}
      amount: 1
      drop: 100
    drop: 10
    random: 0
  opened: {fileID: 7016555201875274139, guid: 260327d5cbc8fe749979373a65044895, type: 3}
  showChance: 10
