%YAML 1.1
%TAG !u! tag:unity3d.com,2011:
--- !u!114 &11400000
MonoBehaviour:
  m_ObjectHideFlags: 0
  m_CorrespondingSourceObject: {fileID: 0}
  m_PrefabInstance: {fileID: 0}
  m_PrefabAsset: {fileID: 0}
  m_GameObject: {fileID: 0}
  m_Enabled: 1
  m_EditorHideFlags: 0
  m_Script: {fileID: 11500000, guid: 2a97ccdf23d39b446a25e5206bdb0cae, type: 3}
  m_Name: Level Indus 5
  m_EditorClassIdentifier: 
  icon: {fileID: 0}
  id: 91fdf041-fd28-4a51-9bf4-612cee78a201
  description: 
  requires: []
  rewards:
  - item: {fileID: 11400000, guid: bd2c487ca6a516340bfa02d8785b7111, type: 2}
    amount: 3500
    drop: 100
  - item: {fileID: 11400000, guid: 7b1d1af95e241624db9d53f75f51095c, type: 2}
    amount: 1
    drop: 100
  clip: {fileID: 8300000, guid: 3cc518e5f34b5974b833616fbd7afb8c, type: 3}
  prefab: {fileID: 2660500783537930713, guid: 3f774e8263a3a444d94f818dc514c3ff, type: 3}
  level: 20
  energy: 5
  time: 60
  gold1: 17000
  gold2: 17200
  completed: 0
