%YAML 1.1
%TAG !u! tag:unity3d.com,2011:
--- !u!687078895 &4343727234628468602
SpriteAtlas:
  m_ObjectHideFlags: 0
  m_CorrespondingSourceObject: {fileID: 0}
  m_PrefabInstance: {fileID: 0}
  m_PrefabAsset: {fileID: 0}
  m_Name: ui health atlas
  m_EditorData:
    serializedVersion: 2
    textureSettings:
      serializedVersion: 2
      anisoLevel: 1
      compressionQuality: 50
      maxTextureSize: 2048
      textureCompression: 0
      filterMode: 1
      generateMipMaps: 0
      readable: 0
      crunchedCompression: 0
      sRGB: 1
    platformSettings:
    - serializedVersion: 3
      m_BuildTarget: DefaultTexturePlatform
      m_MaxTextureSize: 2048
      m_ResizeAlgorithm: 0
      m_TextureFormat: -1
      m_TextureCompression: 2
      m_CompressionQuality: 50
      m_CrunchedCompression: 1
      m_AllowsAlphaSplitting: 0
      m_Overridden: 0
      m_AndroidETC2FallbackOverride: 0
      m_ForceMaximumCompressionQuality_BC6H_BC7: 0
    packingSettings:
      serializedVersion: 2
      padding: 2
      blockOffset: 1
      allowAlphaSplitting: 0
      enableRotation: 1
      enableTightPacking: 0
    secondaryTextureSettings: {}
    variantMultiplier: 1
    packables:
    - {fileID: 2800000, guid: f3579c86efb60d74f8ce4ba0f10b60cd, type: 3}
    - {fileID: 2800000, guid: 927ad4c96f2b8964dbbd80af45eb29a5, type: 3}
    - {fileID: 2800000, guid: 1f9e2f7986946274791e1144de57bef1, type: 3}
    totalSpriteSurfaceArea: 86854
    bindAsDefault: 1
    isAtlasV2: 0
    cachedData: {fileID: 0}
  m_MasterAtlas: {fileID: 0}
  m_PackedSprites:
  - {fileID: 21300000, guid: f3579c86efb60d74f8ce4ba0f10b60cd, type: 3}
  - {fileID: 21300000, guid: 1f9e2f7986946274791e1144de57bef1, type: 3}
  - {fileID: 21300000, guid: 927ad4c96f2b8964dbbd80af45eb29a5, type: 3}
  m_PackedSpriteNamesToIndex:
  - "thanh d\xE0nh d\u1EADt 5"
  - "thanh d\xE0nh d\u1EADt 0"
  - "THANH 8 M\xC1U"
  m_RenderDataMap: {}
  m_Tag: ui health atlas
  m_IsVariant: 0
