%YAML 1.1
%TAG !u! tag:unity3d.com,2011:
--- !u!114 &11400000
MonoBehaviour:
  m_ObjectHideFlags: 0
  m_CorrespondingSourceObject: {fileID: 0}
  m_PrefabInstance: {fileID: 0}
  m_PrefabAsset: {fileID: 0}
  m_GameObject: {fileID: 0}
  m_Enabled: 1
  m_EditorHideFlags: 0
  m_Script: {fileID: 11500000, guid: ffcc26ac2b9a47199fb2ba40069c48bf, type: 3}
  m_Name: Quest Viking 2
  m_EditorClassIdentifier: 
  rewards:
  - rewards:
    - item: {fileID: 11400000, guid: 0f76c785284608e4fb1eb84620946d56, type: 2}
      amount: 1
      drop: 100
    drop: 100
    random: 0
  requires:
  - itemRequire: {fileID: 11400000, guid: b375868a23d3a914c9897d9c616212b5, type: 2}
    requireAmount: 35
    currentAmount: 0
  listQuestType: 4
  questType: 0
  id: 9311cf8b-cc7d-4d5b-8e74-906cd6efc2ee
  title: "H\u1ED6 TR\u1EE2 NUE T\u1EA0O RA R\xCCU S\u1EAET "
  description: "THU NH\u1EACP 35 QU\u1EB6NG S\u1EAET"
  daily: 0
  received: 0
