%YAML 1.1
%TAG !u! tag:unity3d.com,2011:
--- !u!114 &11400000
MonoBehaviour:
  m_ObjectHideFlags: 0
  m_CorrespondingSourceObject: {fileID: 0}
  m_PrefabInstance: {fileID: 0}
  m_PrefabAsset: {fileID: 0}
  m_GameObject: {fileID: 0}
  m_Enabled: 1
  m_EditorHideFlags: 0
  m_Script: {fileID: 11500000, guid: d7db433b51414c7db1e97d05ea5dc356, type: 3}
  m_Name: pet nguoi da maya
  m_EditorClassIdentifier: 
  id: efe1e23b-8cb1-47fb-b410-f4b6139c1b5d
  itemType: 2
  icon: {fileID: 21300000, guid: 6821b480b739e794aa8536ec5fa8c3c6, type: 3}
  price: 0
  description: 
  iconEquip: {fileID: 0}
  material: {fileID: 0}
  special:
    items: []
    strength: 0
    pullSpeed: 0
    flySpeed: 0
    timerWhenDiamondBack: 0
    timerWhenGoldBack: 0
    damageToBoss: 0
    percentDamageToBoss: 0
    resourcePoint: 0
  strength: 0
  pullSpeed: 15
  stoneSpeed: 0
  flySpeed: 0
  goldWhenBack: 5
  timerWhenDiamondBack: 0
  timerWhenGoldBack: 0
  timerWhenStoneBack: 3
  damageToBoss: 0
  percentDamageToBoss: 0
  percentWinBoss: 0
  percentDestroyItem: 0
  stonePoint: 0
  resourcePoint: 0
  tntFree: 0
  strengthFree: 0
  seconds: 0
  secondWins: 0
