%YAML 1.1
%TAG !u! tag:unity3d.com,2011:
--- !u!687078895 &4343727234628468602
SpriteAtlas:
  m_ObjectHideFlags: 0
  m_CorrespondingSourceObject: {fileID: 0}
  m_PrefabInstance: {fileID: 0}
  m_PrefabAsset: {fileID: 0}
  m_Name: anasazi atlas
  m_EditorData:
    serializedVersion: 2
    textureSettings:
      serializedVersion: 2
      anisoLevel: 1
      compressionQuality: 50
      maxTextureSize: 2048
      textureCompression: 0
      filterMode: 1
      generateMipMaps: 0
      readable: 0
      crunchedCompression: 0
      sRGB: 1
    platformSettings:
    - serializedVersion: 3
      m_BuildTarget: DefaultTexturePlatform
      m_MaxTextureSize: 2048
      m_ResizeAlgorithm: 0
      m_TextureFormat: -1
      m_TextureCompression: 2
      m_CompressionQuality: 50
      m_CrunchedCompression: 1
      m_AllowsAlphaSplitting: 0
      m_Overridden: 0
      m_AndroidETC2FallbackOverride: 0
      m_ForceMaximumCompressionQuality_BC6H_BC7: 0
    packingSettings:
      serializedVersion: 2
      padding: 2
      blockOffset: 1
      allowAlphaSplitting: 0
      enableRotation: 1
      enableTightPacking: 0
    secondaryTextureSettings: {}
    variantMultiplier: 1
    packables:
    - {fileID: 2800000, guid: 7ef32d96b6d37634b99485e7d349991b, type: 3}
    - {fileID: 2800000, guid: 714ec436b13020244aac1af5791f68f1, type: 3}
    - {fileID: 2800000, guid: f2c524174a90dad4783873f5b769bf80, type: 3}
    - {fileID: 2800000, guid: f44b19f97f0174743b1b7f678f7ff8cb, type: 3}
    - {fileID: 2800000, guid: 66355113a1b174745856632e5df96dc5, type: 3}
    - {fileID: 2800000, guid: 2925bb0efe132104cba7673f547107a6, type: 3}
    - {fileID: 2800000, guid: a3c76dadd5d232f4daa616d85d8d8f4f, type: 3}
    - {fileID: 2800000, guid: 5b8205b352f378844bd9869355c89b90, type: 3}
    - {fileID: 2800000, guid: 3dc97dc3de282a0418f4b1d317969924, type: 3}
    totalSpriteSurfaceArea: 1517688
    bindAsDefault: 1
    isAtlasV2: 0
    cachedData: {fileID: 0}
  m_MasterAtlas: {fileID: 0}
  m_PackedSprites:
  - {fileID: 21300000, guid: 66355113a1b174745856632e5df96dc5, type: 3}
  - {fileID: 21300000, guid: 5b8205b352f378844bd9869355c89b90, type: 3}
  - {fileID: 21300000, guid: 3dc97dc3de282a0418f4b1d317969924, type: 3}
  - {fileID: 21300000, guid: 714ec436b13020244aac1af5791f68f1, type: 3}
  - {fileID: 21300000, guid: 7ef32d96b6d37634b99485e7d349991b, type: 3}
  - {fileID: 21300000, guid: f2c524174a90dad4783873f5b769bf80, type: 3}
  - {fileID: 21300000, guid: f44b19f97f0174743b1b7f678f7ff8cb, type: 3}
  - {fileID: 21300000, guid: a3c76dadd5d232f4daa616d85d8d8f4f, type: 3}
  - {fileID: 21300000, guid: 2925bb0efe132104cba7673f547107a6, type: 3}
  m_PackedSpriteNamesToIndex:
  - "x\u01B0\u01A1ng 1 (2)"
  - "x\u01B0\u01A1ng 4 (2)"
  - "\u0111\u1EA3o 1"
  - "\u0111\u1EA3o 3"
  - "background v\xF4 game anasazi"
  - "\u0111\u1EA3o 2"
  - "d\u1EA5u ch\u1EA5m than"
  - "x\u01B0\u01A1ng 3 (2)"
  - "x\u01B0\u01A1ng 2 (2)"
  m_RenderDataMap: {}
  m_Tag: anasazi atlas
  m_IsVariant: 0
