%YAML 1.1
%TAG !u! tag:unity3d.com,2011:
--- !u!687078895 &4343727234628468602
SpriteAtlas:
  m_ObjectHideFlags: 0
  m_CorrespondingSourceObject: {fileID: 0}
  m_PrefabInstance: {fileID: 0}
  m_PrefabAsset: {fileID: 0}
  m_Name: ui boss atlas
  m_EditorData:
    serializedVersion: 2
    textureSettings:
      serializedVersion: 2
      anisoLevel: 1
      compressionQuality: 50
      maxTextureSize: 2048
      textureCompression: 0
      filterMode: 1
      generateMipMaps: 0
      readable: 0
      crunchedCompression: 0
      sRGB: 1
    platformSettings:
    - serializedVersion: 3
      m_BuildTarget: DefaultTexturePlatform
      m_MaxTextureSize: 2048
      m_ResizeAlgorithm: 0
      m_TextureFormat: -1
      m_TextureCompression: 2
      m_CompressionQuality: 50
      m_CrunchedCompression: 1
      m_AllowsAlphaSplitting: 0
      m_Overridden: 0
      m_AndroidETC2FallbackOverride: 0
      m_ForceMaximumCompressionQuality_BC6H_BC7: 0
    packingSettings:
      serializedVersion: 2
      padding: 2
      blockOffset: 1
      allowAlphaSplitting: 0
      enableRotation: 1
      enableTightPacking: 0
    secondaryTextureSettings: {}
    variantMultiplier: 1
    packables:
    - {fileID: 2800000, guid: e00f25f5f1c64ea4aba83d2530ae2d2f, type: 3}
    - {fileID: 2800000, guid: eb078cb62e073c646bbfc33f4da4bae1, type: 3}
    - {fileID: 2800000, guid: e240420f18b752a44b9358af6d5af04a, type: 3}
    - {fileID: 2800000, guid: 320dbbf60f6c1224f9d90076d3c459bc, type: 3}
    - {fileID: 2800000, guid: e76cff499daeb944289f6fd05b2df82f, type: 3}
    - {fileID: 2800000, guid: c3a64f836230a82408b761c67cb09ad2, type: 3}
    - {fileID: 2800000, guid: 1c25af5b22770b44393945b92661d514, type: 3}
    - {fileID: 2800000, guid: cf18860c069750541ba9958dae13bf3f, type: 3}
    - {fileID: 2800000, guid: 5e717796271dae047bcd29e20c101b42, type: 3}
    totalSpriteSurfaceArea: 2673676
    bindAsDefault: 1
    isAtlasV2: 0
    cachedData: {fileID: 0}
  m_MasterAtlas: {fileID: 0}
  m_PackedSprites:
  - {fileID: 21300000, guid: c3a64f836230a82408b761c67cb09ad2, type: 3}
  - {fileID: 21300000, guid: e00f25f5f1c64ea4aba83d2530ae2d2f, type: 3}
  - {fileID: 21300000, guid: 5e717796271dae047bcd29e20c101b42, type: 3}
  - {fileID: -2005919254139113183, guid: eb078cb62e073c646bbfc33f4da4bae1, type: 3}
  - {fileID: 4703387074286070659, guid: eb078cb62e073c646bbfc33f4da4bae1, type: 3}
  - {fileID: -3980590269685495429, guid: eb078cb62e073c646bbfc33f4da4bae1, type: 3}
  - {fileID: -1924468024588189511, guid: eb078cb62e073c646bbfc33f4da4bae1, type: 3}
  - {fileID: -1987752617530075507, guid: eb078cb62e073c646bbfc33f4da4bae1, type: 3}
  - {fileID: -2380921565193459105, guid: eb078cb62e073c646bbfc33f4da4bae1, type: 3}
  - {fileID: 8639821032037207503, guid: eb078cb62e073c646bbfc33f4da4bae1, type: 3}
  - {fileID: 21300000, guid: 320dbbf60f6c1224f9d90076d3c459bc, type: 3}
  - {fileID: 21300000, guid: e76cff499daeb944289f6fd05b2df82f, type: 3}
  - {fileID: 21300000, guid: 1c25af5b22770b44393945b92661d514, type: 3}
  - {fileID: 21300000, guid: cf18860c069750541ba9958dae13bf3f, type: 3}
  - {fileID: 21300000, guid: e240420f18b752a44b9358af6d5af04a, type: 3}
  m_PackedSpriteNamesToIndex:
  - "r\u1EAFng 4"
  - "th\u1ECF 4"
  - "th\u1ECF 3"
  - "c\xE1 b\u01A1i_5"
  - "c\xE1 b\u01A1i_4"
  - "c\xE1 b\u01A1i_6"
  - "c\xE1 b\u01A1i_1"
  - "c\xE1 b\u01A1i_0"
  - "c\xE1 b\u01A1i_3"
  - "c\xE1 b\u01A1i_2"
  - "r\u1EAFng 2"
  - "r\u1EAFng 3"
  - "th\u1ECF 1"
  - "th\u1ECF 2"
  - "r\u1EAFng 1"
  m_RenderDataMap: {}
  m_Tag: ui boss atlas
  m_IsVariant: 0
