%YAML 1.1
%TAG !u! tag:unity3d.com,2011:
--- !u!114 &11400000
MonoBehaviour:
  m_ObjectHideFlags: 0
  m_CorrespondingSourceObject: {fileID: 0}
  m_PrefabInstance: {fileID: 0}
  m_PrefabAsset: {fileID: 0}
  m_GameObject: {fileID: 0}
  m_Enabled: 1
  m_EditorHideFlags: 0
  m_Script: {fileID: 11500000, guid: 2a97ccdf23d39b446a25e5206bdb0cae, type: 3}
  m_Name: Level Egypt 4
  m_EditorClassIdentifier: 
  icon: {fileID: 0}
  id: a29b45ce-85f7-44b7-bfef-34efd3a15cee
  description: 
  requires: []
  rewards:
  - item: {fileID: 11400000, guid: bd2c487ca6a516340bfa02d8785b7111, type: 2}
    amount: 3600
    drop: 100
  - item: {fileID: 11400000, guid: bb40bf789a825d94f80c8d9cde6ec48e, type: 2}
    amount: 1
    drop: 100
  clip: {fileID: 8300000, guid: ed2bbdc55b66fc0498ce7d12dcfb336a, type: 3}
  prefab: {fileID: 8150600193674434908, guid: 227fb5ce6cfd0e04fbdaba8a76c2c0e3, type: 3}
  level: 25
  energy: 5
  time: 60
  gold1: 19000
  gold2: 19300
  completed: 0
