%YAML 1.1
%TAG !u! tag:unity3d.com,2011:
--- !u!687078895 &4343727234628468602
SpriteAtlas:
  m_ObjectHideFlags: 0
  m_CorrespondingSourceObject: {fileID: 0}
  m_PrefabInstance: {fileID: 0}
  m_PrefabAsset: {fileID: 0}
  m_Name: UI Pet Atlas
  m_EditorData:
    serializedVersion: 2
    textureSettings:
      serializedVersion: 2
      anisoLevel: 1
      compressionQuality: 50
      maxTextureSize: 2048
      textureCompression: 0
      filterMode: 1
      generateMipMaps: 0
      readable: 0
      crunchedCompression: 0
      sRGB: 1
    platformSettings:
    - serializedVersion: 3
      m_BuildTarget: DefaultTexturePlatform
      m_MaxTextureSize: 2048
      m_ResizeAlgorithm: 0
      m_TextureFormat: -1
      m_TextureCompression: 2
      m_CompressionQuality: 50
      m_CrunchedCompression: 1
      m_AllowsAlphaSplitting: 0
      m_Overridden: 0
      m_AndroidETC2FallbackOverride: 0
      m_ForceMaximumCompressionQuality_BC6H_BC7: 0
    packingSettings:
      serializedVersion: 2
      padding: 2
      blockOffset: 1
      allowAlphaSplitting: 0
      enableRotation: 1
      enableTightPacking: 0
    secondaryTextureSettings: {}
    variantMultiplier: 1
    packables:
    - {fileID: 2800000, guid: 3e9111b8161881741b09fd4a7a991436, type: 3}
    - {fileID: 2800000, guid: 8f58d82afdb688e42a54c6f334ef4901, type: 3}
    - {fileID: 2800000, guid: 3b964da870f12874abd9782f99cf4b23, type: 3}
    - {fileID: 2800000, guid: 6821b480b739e794aa8536ec5fa8c3c6, type: 3}
    - {fileID: 2800000, guid: 448ccfeb05a0a554cbe4341525a25dde, type: 3}
    - {fileID: 2800000, guid: a16aebc767ab6ea4b94045b2e72bc595, type: 3}
    - {fileID: 2800000, guid: 13d5ebbe45d04534ea76692cd2f50f0d, type: 3}
    - {fileID: 2800000, guid: e898d67fde4c629468e221b3c5255379, type: 3}
    - {fileID: 2800000, guid: 34d070cd991da8b4199579d508bec343, type: 3}
    - {fileID: 2800000, guid: d70d03dc60866f94bb304f310f737013, type: 3}
    totalSpriteSurfaceArea: 2119320
    bindAsDefault: 1
    isAtlasV2: 0
    cachedData: {fileID: 0}
  m_MasterAtlas: {fileID: 0}
  m_PackedSprites:
  - {fileID: 21300000, guid: 6821b480b739e794aa8536ec5fa8c3c6, type: 3}
  - {fileID: 21300000, guid: a16aebc767ab6ea4b94045b2e72bc595, type: 3}
  - {fileID: 21300000, guid: 3b964da870f12874abd9782f99cf4b23, type: 3}
  - {fileID: 21300000, guid: 3e9111b8161881741b09fd4a7a991436, type: 3}
  - {fileID: 21300000, guid: 8f58d82afdb688e42a54c6f334ef4901, type: 3}
  - {fileID: 21300000, guid: 448ccfeb05a0a554cbe4341525a25dde, type: 3}
  - {fileID: 21300000, guid: d70d03dc60866f94bb304f310f737013, type: 3}
  - {fileID: 21300000, guid: 34d070cd991da8b4199579d508bec343, type: 3}
  - {fileID: 21300000, guid: 13d5ebbe45d04534ea76692cd2f50f0d, type: 3}
  - {fileID: 21300000, guid: e898d67fde4c629468e221b3c5255379, type: 3}
  m_PackedSpriteNamesToIndex:
  - "d\xE1"
  - "NH\xC2N S\u01AF "
  - "di\u1EC1u h\xE2u"
  - "b\xF2"
  - "c\xF4ng"
  - heo
  - "tu\u1ED9c"
  - shark
  - 'pet lion '
  - "pet r\u1ED3ng con"
  m_RenderDataMap: {}
  m_Tag: UI Pet Atlas
  m_IsVariant: 0
