%YAML 1.1
%TAG !u! tag:unity3d.com,2011:
--- !u!687078895 &4343727234628468602
SpriteAtlas:
  m_ObjectHideFlags: 0
  m_CorrespondingSourceObject: {fileID: 0}
  m_PrefabInstance: {fileID: 0}
  m_PrefabAsset: {fileID: 0}
  m_Name: New Sprite Atlas
  m_EditorData:
    serializedVersion: 2
    textureSettings:
      serializedVersion: 2
      anisoLevel: 1
      compressionQuality: 50
      maxTextureSize: 2048
      textureCompression: 0
      filterMode: 1
      generateMipMaps: 0
      readable: 0
      crunchedCompression: 0
      sRGB: 1
    platformSettings:
    - serializedVersion: 3
      m_BuildTarget: DefaultTexturePlatform
      m_MaxTextureSize: 2048
      m_ResizeAlgorithm: 0
      m_TextureFormat: -1
      m_TextureCompression: 1
      m_CompressionQuality: 50
      m_CrunchedCompression: 1
      m_AllowsAlphaSplitting: 0
      m_Overridden: 0
      m_AndroidETC2FallbackOverride: 0
      m_ForceMaximumCompressionQuality_BC6H_BC7: 0
    packingSettings:
      serializedVersion: 2
      padding: 2
      blockOffset: 1
      allowAlphaSplitting: 0
      enableRotation: 1
      enableTightPacking: 0
    secondaryTextureSettings: {}
    variantMultiplier: 1
    packables:
    - {fileID: 2800000, guid: 0212bc3cc5a3d59479cce021cf93a4f3, type: 3}
    - {fileID: 2800000, guid: d93a34c604c2d8f4d97e9e2e26a8d490, type: 3}
    - {fileID: 2800000, guid: ca5ff312f5dcbc74cb75b332467afddd, type: 3}
    - {fileID: 2800000, guid: 5cae695258120114eb7b1f35176ae073, type: 3}
    - {fileID: 2800000, guid: 6a3e59b542dad2a41aa9ec239c45f11c, type: 3}
    - {fileID: 2800000, guid: 006c5b2ba23d7514182c3c116e170060, type: 3}
    - {fileID: 2800000, guid: 4145172dbc31cbc40b581770ed02bb56, type: 3}
    - {fileID: 2800000, guid: 778f0c334b3db3d4795d0b09ce6344e0, type: 3}
    - {fileID: 2800000, guid: 5806aff8cf67351489c0eef9b07f20f0, type: 3}
    - {fileID: 2800000, guid: a465adf9d6276f04f8599bd1ba948459, type: 3}
    - {fileID: 2800000, guid: a285e46123a8a83478aa9a7e21389238, type: 3}
    - {fileID: 2800000, guid: ec46a80b60e9b7a44baee38efbef5808, type: 3}
    - {fileID: 2800000, guid: 8b691fe24a8d24d45a7c1e47331714d7, type: 3}
    - {fileID: 2800000, guid: ed0bc3097e841064d82bd3c811bfc800, type: 3}
    - {fileID: 2800000, guid: a8d418603d55b7e43924cd96c208bb9a, type: 3}
    - {fileID: 2800000, guid: 94edc7195e1f3d946ad578e72e6a86f9, type: 3}
    - {fileID: 2800000, guid: 70d0f5c8feb539347915912f43617a54, type: 3}
    - {fileID: 2800000, guid: 7ba48d836e72cdb4e8b2204a9776571b, type: 3}
    - {fileID: 2800000, guid: a007123ecc6c35a45b9abeed908fb709, type: 3}
    - {fileID: 2800000, guid: f34bd9a68d9072b4aa76b1dfd673bf30, type: 3}
    - {fileID: 2800000, guid: c211616c0385d7a47a8de2ed27742e54, type: 3}
    - {fileID: 2800000, guid: 11a4a36cc1914df4d8ae169f91d1f2e7, type: 3}
    - {fileID: 2800000, guid: 52565b0372eaf254980e0c89c8f1937c, type: 3}
    - {fileID: 2800000, guid: 7f1dc1e9168493a4e8ceeed3544af195, type: 3}
    - {fileID: 2800000, guid: 1f317a8e85ad3d846b89622cddbbf1fc, type: 3}
    - {fileID: 2800000, guid: 798b0a292fc4b994fa6ed070e44e2398, type: 3}
    - {fileID: 2800000, guid: a10cc3eaad060b34dbb75a7184b6bac4, type: 3}
    - {fileID: 2800000, guid: 1c6e123ab49633c4fa87db09529f22ec, type: 3}
    - {fileID: 2800000, guid: 528cefe221b49f34eb3f740f17ca0238, type: 3}
    - {fileID: 2800000, guid: 712d17f894376674bbd310350e8490b8, type: 3}
    - {fileID: 2800000, guid: ffd097db81571f546b8f71ae0de0472c, type: 3}
    - {fileID: 2800000, guid: 3493bb0eaf7b49149bfe14d418ffc250, type: 3}
    - {fileID: 2800000, guid: 42f3b145c1ea5c042983858b2659131d, type: 3}
    - {fileID: 2800000, guid: 60da81bf44b1c774f97ea9ad08ac9706, type: 3}
    - {fileID: 2800000, guid: b1d79f12d252aa042884eae9f1cb2a8d, type: 3}
    - {fileID: 2800000, guid: 9fb227aa47f6dff46a70c3e6f4ad237e, type: 3}
    - {fileID: 2800000, guid: 3237777d373e99d47ace4b7a731cc25d, type: 3}
    - {fileID: 2800000, guid: 6c8fe2bb8e595604ea6c100ad8bd6b5e, type: 3}
    - {fileID: 2800000, guid: 9a46658a71b7a7b418aa0fac7cdd2a72, type: 3}
    - {fileID: 2800000, guid: 41c01493a1f9dff4e81e4c818bf30050, type: 3}
    - {fileID: 2800000, guid: 05f53f53508ce1747be5678dffb29ef3, type: 3}
    - {fileID: 2800000, guid: 78c9497bb1657114d9becc2a8ad6fd1f, type: 3}
    - {fileID: 2800000, guid: 73c228b42995ff8468e69a7aeb83f93c, type: 3}
    - {fileID: 2800000, guid: 039c88a98b2200e4a909129e813832cc, type: 3}
    - {fileID: 2800000, guid: 583beafa1a89cb7428484fa885107d53, type: 3}
    - {fileID: 2800000, guid: bbad8bdac771d9b4b9efa9f6e6fec2d7, type: 3}
    - {fileID: 2800000, guid: 5d7846d2fe76a9c4996b882b06cd6cd0, type: 3}
    - {fileID: 2800000, guid: 3b43d7af911bdc346b16afb2f92b9a05, type: 3}
    - {fileID: 2800000, guid: 054603b37eca99b40a7265f0d4f609a7, type: 3}
    - {fileID: 2800000, guid: 047acd77f38f20345b42b0cb004a54e6, type: 3}
    - {fileID: 2800000, guid: a2943bee9a94e294092c3f850c850064, type: 3}
    - {fileID: 2800000, guid: b7f3bc50830abff4380da32544fbfb2b, type: 3}
    - {fileID: 2800000, guid: 2d05101bb102e35409bb4dd401ed0214, type: 3}
    - {fileID: 2800000, guid: a397309b3b1e9af448d9a6d5461b4559, type: 3}
    - {fileID: 2800000, guid: a0b5043b6c531dd4a84e86d71e369420, type: 3}
    - {fileID: 2800000, guid: d07f5eeb0c4590b489602409611d5ab5, type: 3}
    - {fileID: 2800000, guid: 53a62eec458023c4687ad9ae6adb4501, type: 3}
    - {fileID: 2800000, guid: a5faa804d707536488c18bff0d1b9596, type: 3}
    - {fileID: 2800000, guid: 3fa4ff845e217cd4cab45a4b802b7ef4, type: 3}
    - {fileID: 2800000, guid: 3f8b36e6c26152242bdd6ec0559ce640, type: 3}
    totalSpriteSurfaceArea: 2220060
    bindAsDefault: 1
    isAtlasV2: 0
    cachedData: {fileID: 0}
  m_MasterAtlas: {fileID: 0}
  m_PackedSprites:
  - {fileID: 21300000, guid: b7f3bc50830abff4380da32544fbfb2b, type: 3}
  - {fileID: 21300000, guid: a8d418603d55b7e43924cd96c208bb9a, type: 3}
  - {fileID: 21300000, guid: a285e46123a8a83478aa9a7e21389238, type: 3}
  - {fileID: 21300000, guid: ca5ff312f5dcbc74cb75b332467afddd, type: 3}
  - {fileID: 21300000, guid: b1d79f12d252aa042884eae9f1cb2a8d, type: 3}
  - {fileID: 21300000, guid: 5cae695258120114eb7b1f35176ae073, type: 3}
  - {fileID: 21300000, guid: 5d7846d2fe76a9c4996b882b06cd6cd0, type: 3}
  - {fileID: 21300000, guid: 8b691fe24a8d24d45a7c1e47331714d7, type: 3}
  - {fileID: 21300000, guid: 528cefe221b49f34eb3f740f17ca0238, type: 3}
  - {fileID: 21300000, guid: 52565b0372eaf254980e0c89c8f1937c, type: 3}
  - {fileID: 21300000, guid: 778f0c334b3db3d4795d0b09ce6344e0, type: 3}
  - {fileID: 21300000, guid: 05f53f53508ce1747be5678dffb29ef3, type: 3}
  - {fileID: 21300000, guid: 7ba48d836e72cdb4e8b2204a9776571b, type: 3}
  - {fileID: 21300000, guid: 41c01493a1f9dff4e81e4c818bf30050, type: 3}
  - {fileID: 21300000, guid: 054603b37eca99b40a7265f0d4f609a7, type: 3}
  - {fileID: 21300000, guid: a5faa804d707536488c18bff0d1b9596, type: 3}
  - {fileID: 21300000, guid: 3fa4ff845e217cd4cab45a4b802b7ef4, type: 3}
  - {fileID: 21300000, guid: 73c228b42995ff8468e69a7aeb83f93c, type: 3}
  - {fileID: 21300000, guid: 42f3b145c1ea5c042983858b2659131d, type: 3}
  - {fileID: 21300000, guid: 6a3e59b542dad2a41aa9ec239c45f11c, type: 3}
  - {fileID: 21300000, guid: f34bd9a68d9072b4aa76b1dfd673bf30, type: 3}
  - {fileID: 21300000, guid: d93a34c604c2d8f4d97e9e2e26a8d490, type: 3}
  - {fileID: 21300000, guid: 3f8b36e6c26152242bdd6ec0559ce640, type: 3}
  - {fileID: 21300000, guid: 047acd77f38f20345b42b0cb004a54e6, type: 3}
  - {fileID: 21300000, guid: 70d0f5c8feb539347915912f43617a54, type: 3}
  - {fileID: 21300000, guid: 712d17f894376674bbd310350e8490b8, type: 3}
  - {fileID: 21300000, guid: 5806aff8cf67351489c0eef9b07f20f0, type: 3}
  - {fileID: 21300000, guid: ed0bc3097e841064d82bd3c811bfc800, type: 3}
  - {fileID: 21300000, guid: 94edc7195e1f3d946ad578e72e6a86f9, type: 3}
  - {fileID: 21300000, guid: 798b0a292fc4b994fa6ed070e44e2398, type: 3}
  - {fileID: 21300000, guid: 039c88a98b2200e4a909129e813832cc, type: 3}
  - {fileID: 21300000, guid: 7f1dc1e9168493a4e8ceeed3544af195, type: 3}
  - {fileID: 21300000, guid: a465adf9d6276f04f8599bd1ba948459, type: 3}
  - {fileID: 21300000, guid: 1c6e123ab49633c4fa87db09529f22ec, type: 3}
  - {fileID: 21300000, guid: 9a46658a71b7a7b418aa0fac7cdd2a72, type: 3}
  - {fileID: 21300000, guid: 9fb227aa47f6dff46a70c3e6f4ad237e, type: 3}
  - {fileID: 21300000, guid: bbad8bdac771d9b4b9efa9f6e6fec2d7, type: 3}
  - {fileID: 21300000, guid: a10cc3eaad060b34dbb75a7184b6bac4, type: 3}
  - {fileID: 21300000, guid: 583beafa1a89cb7428484fa885107d53, type: 3}
  - {fileID: 21300000, guid: ec46a80b60e9b7a44baee38efbef5808, type: 3}
  - {fileID: 21300000, guid: 2d05101bb102e35409bb4dd401ed0214, type: 3}
  - {fileID: 21300000, guid: 006c5b2ba23d7514182c3c116e170060, type: 3}
  - {fileID: 21300000, guid: a0b5043b6c531dd4a84e86d71e369420, type: 3}
  - {fileID: 21300000, guid: 78c9497bb1657114d9becc2a8ad6fd1f, type: 3}
  - {fileID: 21300000, guid: a397309b3b1e9af448d9a6d5461b4559, type: 3}
  - {fileID: 21300000, guid: 6c8fe2bb8e595604ea6c100ad8bd6b5e, type: 3}
  - {fileID: 21300000, guid: ffd097db81571f546b8f71ae0de0472c, type: 3}
  - {fileID: 21300000, guid: d07f5eeb0c4590b489602409611d5ab5, type: 3}
  - {fileID: 21300000, guid: 0212bc3cc5a3d59479cce021cf93a4f3, type: 3}
  - {fileID: 21300000, guid: c211616c0385d7a47a8de2ed27742e54, type: 3}
  - {fileID: 21300000, guid: 11a4a36cc1914df4d8ae169f91d1f2e7, type: 3}
  - {fileID: 21300000, guid: 53a62eec458023c4687ad9ae6adb4501, type: 3}
  - {fileID: 21300000, guid: 4145172dbc31cbc40b581770ed02bb56, type: 3}
  - {fileID: 21300000, guid: 3237777d373e99d47ace4b7a731cc25d, type: 3}
  - {fileID: 21300000, guid: 3493bb0eaf7b49149bfe14d418ffc250, type: 3}
  - {fileID: 21300000, guid: a007123ecc6c35a45b9abeed908fb709, type: 3}
  - {fileID: 21300000, guid: 1f317a8e85ad3d846b89622cddbbf1fc, type: 3}
  - {fileID: 21300000, guid: a2943bee9a94e294092c3f850c850064, type: 3}
  - {fileID: 21300000, guid: 3b43d7af911bdc346b16afb2f92b9a05, type: 3}
  - {fileID: 21300000, guid: 60da81bf44b1c774f97ea9ad08ac9706, type: 3}
  m_PackedSpriteNamesToIndex:
  - loki (2)xuathien_00050
  - loki (2)xuathien_00013
  - loki (2)xuathien_00009
  - loki (2)xuathien_00001
  - loki (2)xuathien_00033
  - loki (2)xuathien_00002
  - loki (2)xuathien_00045
  - loki (2)xuathien_00011
  - loki (2)xuathien_00027
  - loki (2)xuathien_00021
  - loki (2)xuathien_00006
  - loki (2)xuathien_00039
  - loki (2)xuathien_00016
  - loki (2)xuathien_00038
  - loki (2)xuathien_00047
  - loki (2)xuathien_00056
  - loki (2)xuathien_00057
  - loki (2)xuathien_00041
  - loki (2)xuathien_00031
  - loki (2)xuathien_00003
  - loki (2)xuathien_00018
  - loki (2)xuathien_00000
  - loki (2)xuathien_00058
  - loki (2)xuathien_00048
  - loki (2)xuathien_00015
  - loki (2)xuathien_00028
  - loki (2)xuathien_00007
  - loki (2)xuathien_00012
  - loki (2)xuathien_00014
  - loki (2)xuathien_00024
  - loki (2)xuathien_00042
  - loki (2)xuathien_00022
  - loki (2)xuathien_00008
  - loki (2)xuathien_00026
  - loki (2)xuathien_00037
  - loki (2)xuathien_00034
  - loki (2)xuathien_00044
  - loki (2)xuathien_00025
  - loki (2)xuathien_00043
  - loki (2)xuathien_00010
  - loki (2)xuathien_00051
  - loki (2)xuathien_00004
  - loki (2)xuathien_00053
  - loki (2)xuathien_00040
  - loki (2)xuathien_00052
  - loki (2)xuathien_00036
  - loki (2)xuathien_00029
  - loki (2)xuathien_00054
  - loki (2)xuathien_00059
  - loki (2)xuathien_00019
  - loki (2)xuathien_00020
  - loki (2)xuathien_00055
  - loki (2)xuathien_00005
  - loki (2)xuathien_00035
  - loki (2)xuathien_00030
  - loki (2)xuathien_00017
  - loki (2)xuathien_00023
  - loki (2)xuathien_00049
  - loki (2)xuathien_00046
  - loki (2)xuathien_00032
  m_RenderDataMap: {}
  m_Tag: New Sprite Atlas
  m_IsVariant: 0
