%YAML 1.1
%TAG !u! tag:unity3d.com,2011:
--- !u!687078895 &4343727234628468602
SpriteAtlas:
  m_ObjectHideFlags: 0
  m_CorrespondingSourceObject: {fileID: 0}
  m_PrefabInstance: {fileID: 0}
  m_PrefabAsset: {fileID: 0}
  m_Name: greek atlas
  m_EditorData:
    serializedVersion: 2
    textureSettings:
      serializedVersion: 2
      anisoLevel: 1
      compressionQuality: 50
      maxTextureSize: 2048
      textureCompression: 0
      filterMode: 1
      generateMipMaps: 0
      readable: 0
      crunchedCompression: 0
      sRGB: 1
    platformSettings:
    - serializedVersion: 3
      m_BuildTarget: DefaultTexturePlatform
      m_MaxTextureSize: 2048
      m_ResizeAlgorithm: 0
      m_TextureFormat: -1
      m_TextureCompression: 2
      m_CompressionQuality: 50
      m_CrunchedCompression: 1
      m_AllowsAlphaSplitting: 0
      m_Overridden: 0
      m_AndroidETC2FallbackOverride: 0
      m_ForceMaximumCompressionQuality_BC6H_BC7: 0
    packingSettings:
      serializedVersion: 2
      padding: 2
      blockOffset: 1
      allowAlphaSplitting: 0
      enableRotation: 1
      enableTightPacking: 0
    secondaryTextureSettings: {}
    variantMultiplier: 1
    packables:
    - {fileID: 2800000, guid: 8a3fe98164679b4469e5935f7f3e18a5, type: 3}
    - {fileID: 2800000, guid: dcb3af3d1c8d92e4188bc627493e889c, type: 3}
    - {fileID: 2800000, guid: f3253074e6db4454dab61c39e339c448, type: 3}
    - {fileID: 2800000, guid: b31f3b8e71a7ef64bbc9c16139eb8edc, type: 3}
    - {fileID: 2800000, guid: e61b315391701df48b2984849e35987f, type: 3}
    - {fileID: 2800000, guid: 020bca34aa9a43f4c9ff767adb3925b2, type: 3}
    - {fileID: 2800000, guid: 3dadc35eb20391d4097869e28ff52542, type: 3}
    - {fileID: 2800000, guid: 335627faa37f29c45a45e9ca0c23a505, type: 3}
    totalSpriteSurfaceArea: 1100016
    bindAsDefault: 1
    isAtlasV2: 0
    cachedData: {fileID: 0}
  m_MasterAtlas: {fileID: 0}
  m_PackedSprites:
  - {fileID: 21300000, guid: 8a3fe98164679b4469e5935f7f3e18a5, type: 3}
  - {fileID: 21300000, guid: e61b315391701df48b2984849e35987f, type: 3}
  - {fileID: 21300000, guid: 020bca34aa9a43f4c9ff767adb3925b2, type: 3}
  - {fileID: 21300000, guid: f3253074e6db4454dab61c39e339c448, type: 3}
  - {fileID: 21300000, guid: 335627faa37f29c45a45e9ca0c23a505, type: 3}
  - {fileID: 21300000, guid: dcb3af3d1c8d92e4188bc627493e889c, type: 3}
  - {fileID: 21300000, guid: 3dadc35eb20391d4097869e28ff52542, type: 3}
  - {fileID: 21300000, guid: b31f3b8e71a7ef64bbc9c16139eb8edc, type: 3}
  m_PackedSpriteNamesToIndex:
  - "\u0111\u1EA3o 7"
  - "Map hy l\u1EA1p "
  - "\u0110\u1EA3o 1"
  - "\u0111\u1EA3o 5"
  - "\u0111\u1EA3o 3"
  - "\u0111\u1EA3o 6"
  - "\u0111\u1EA3o 2"
  - "\u0111\u1EA3o 4"
  m_RenderDataMap: {}
  m_Tag: greek atlas
  m_IsVariant: 0
