%YAML 1.1
%TAG !u! tag:unity3d.com,2011:
--- !u!114 &11400000
MonoBehaviour:
  m_ObjectHideFlags: 0
  m_CorrespondingSourceObject: {fileID: 0}
  m_PrefabInstance: {fileID: 0}
  m_PrefabAsset: {fileID: 0}
  m_GameObject: {fileID: 0}
  m_Enabled: 1
  m_EditorHideFlags: 0
  m_Script: {fileID: 11500000, guid: ffcc26ac2b9a47199fb2ba40069c48bf, type: 3}
  m_Name: quest anasazi 1-1
  m_EditorClassIdentifier: 
  rewards:
  - rewards:
    - item: {fileID: 11400000, guid: bd2c487ca6a516340bfa02d8785b7111, type: 2}
      amount: 500
      drop: 100
    drop: 100
    random: 0
  requires:
  - itemRequire: {fileID: 11400000, guid: bd2c487ca6a516340bfa02d8785b7111, type: 2}
    requireAmount: 10000
    currentAmount: 0
  - itemRequire: {fileID: 11400000, guid: aee32f2cc268cd843b09a688674adee4, type: 2}
    requireAmount: 15
    currentAmount: 0
  filterType: 0
  questType: 0
  id: f7213b2e-4372-4314-98d9-393108de786a
  title: 
  description: "\"login\nk\xE9o 10000 v\xE0ng\nk\xE9o 15 con r\u1EAFn\""
  daily: 1
  received: 0
  killAllBoss: 0
