%YAML 1.1
%TAG !u! tag:unity3d.com,2011:
--- !u!114 &11400000
MonoBehaviour:
  m_ObjectHideFlags: 0
  m_CorrespondingSourceObject: {fileID: 0}
  m_PrefabInstance: {fileID: 0}
  m_PrefabAsset: {fileID: 0}
  m_GameObject: {fileID: 0}
  m_Enabled: 1
  m_EditorHideFlags: 0
  m_Script: {fileID: 11500000, guid: ffcc26ac2b9a47199fb2ba40069c48bf, type: 3}
  m_Name: Quest Atlantic 3
  m_EditorClassIdentifier: 
  rewards:
  - rewards:
    - item: {fileID: 11400000, guid: e627ffa6e5ee5f34b8756f24e76049e2, type: 2}
      amount: 1
      drop: 100
    drop: 100
    random: 0
  requires:
  - itemRequire: {fileID: 11400000, guid: bad9cd0a339976546b6d9b28aad69684, type: 2}
    requireAmount: 1
    currentAmount: 0
  listQuestType: 1
  questType: 1
  id: a7bf66a3-798f-45d0-86ef-f3609c13c953
  title: "BABY SHARK B\u1ECA L\u1EA0C "
  description: "CHINH PH\u1EE4C MAP ATLANTIC"
  daily: 0
  received: 0
