%YAML 1.1
%TAG !u! tag:unity3d.com,2011:
--- !u!114 &11400000
MonoBehaviour:
  m_ObjectHideFlags: 0
  m_CorrespondingSourceObject: {fileID: 0}
  m_PrefabInstance: {fileID: 0}
  m_PrefabAsset: {fileID: 0}
  m_GameObject: {fileID: 0}
  m_Enabled: 1
  m_EditorHideFlags: 0
  m_Script: {fileID: 11500000, guid: ffcc26ac2b9a47199fb2ba40069c48bf, type: 3}
  m_Name: quest asgard 1-3
  m_EditorClassIdentifier: 
  rewards:
  - rewards:
    - item: {fileID: 11400000, guid: 8519a37232c30fa428e014bb41da2595, type: 2}
      amount: 2
      drop: 100
    drop: 100
    random: 0
  requires:
  - itemRequire: {fileID: 11400000, guid: 4e4553d4dc8862c4fab9dd31fd159401, type: 2}
    requireAmount: 30
    currentAmount: 0
  filterType: 0
  questType: 3
  id: a9e7c797-0683-4986-906c-d5f31fa80552
  title: 
  description: "boss odin xu\u1EA5t hi\u1EC7n \u1EDF round 4"
  daily: 0
  received: 0
  killAllBoss: 0
